Zuzanna Wasiluk - Mini Project 2
…
#Bind all of the tibbles from the previous chunk 
#   together to create one big tibble called events 

events <- rbind(october_tibble,
                 november_tibble,
                 december_tibble,
                 january_tibble,
                 february_tibble,
                 march_tibble,
                 april_tibble)
events

# A tibble: 591 × 5
   date                 book                                  author host  state
   <chr>                <chr>                                 <chr>  <chr> <chr>
 1 11/4/2024 at 10:45am All the Colors of the Dark: A Read w… Chris… Litc… SC   
 2 11/4/2024 at 6:00 PM The Swifts: A Gallery of Rogues       Beth … QUAI… NC   
 3 11/4/2024 at 7pm     Every Valley                          Charl… Poli… DC   
 4 11/4/2024 at 6:00    Blackness Is a Gift I Can Give Her    R. Re… ANOT… ON   
 5 11/4/2024            Classic German Cooking                Luisa… Vass… NY   
 6 11/5/2024            What She Said                         Eliza… Arts… ON –…
 7 11/5/2024 at 11AM    The Gulf                              Adam … TINL… ON   
 8 11/5/2024 at 7pm     Laugh More                            Debbi… Cent… AB   
 9 11/6/2024 at 12:00pm This Fierce People                    Alan … Geor… VA   
10 11/6/2024            Fragments of a Paradise               Paul … TYPE… ON   
# ℹ 581 more rows
…
